{
    "website": {
        "id": 6628,
        "account_id": 7089,
        "name": "Test Website",
        "token": "NY4l5acE",
        "template_id": 197,
        "feed_id": 0,
        "index_id": 26821,
        "logo": null,
        "nav_color": "is-white",
        "nav_color_override": null,
        "bg_image": null,
        "bg_image_opts": null,
        "bg_color": null,
        "adsense_id": null,
        "powered_by": 1,
        "newsletter_signup": 1,
        "scripts": null,
        "status": "draft",
        "created_at": "2021-01-08 16:50:44",
        "updated_at": "2021-01-12 21:00:46",
        "domain": null
    },
    "site_name": "Test Website",
    "logo": null,
    "nav_color": "is-white",
    "transparent": false,
    "nav_color_override": null,
    "bg_color": null,
    "bg_image": null,
    "bg_image_opts": null,
    "adsense_id": null,
    "token": "NY4l5acE",
    "home_url": "..\/..\/",
    "menu": [
        {
            "title": "Home",
            "link": "..\/..\/index.html",
            "class": "",
            "type": "index",
            "external": false
        }
    ],
    "trunc": [],
    "footer": {
        "menu": true,
        "menu_items": [
            {
                "title": "Contact Us",
                "link": "..\/..\/contact_us.html",
                "class": "",
                "type": "",
                "external": false
            }
        ]
    },
    "year": "2021",
    "main": {
        "id": 13257,
        "account_id": 7089,
        "website_id": 6628,
        "name": "Top",
        "status": "draft",
        "created_at": "2021-01-08 16:50:44",
        "updated_at": "2021-01-08 16:50:44",
        "pages": [
            {
                "id": 26821,
                "account_id": 7089,
                "website_id": 6628,
                "feed_id": null,
                "include_posts": 1,
                "post_category": "",
                "title": "Home",
                "image": null,
                "content": null,
                "status": "live",
                "tags": "",
                "link": "",
                "start_time": "2021-01-07 16:50:44",
                "end_time": "1970-01-01 00:00:01",
                "thumb": "",
                "scripts": null,
                "type": "index",
                "created_at": "2021-01-08 16:50:44",
                "updated_at": "2021-01-08 16:50:44",
                "pivot": {
                    "menu_id": 13257,
                    "page_id": 26821
                }
            }
        ]
    },
    "foot": {
        "id": 13258,
        "account_id": 7089,
        "website_id": 6628,
        "name": "Bottom",
        "status": "draft",
        "created_at": "2021-01-08 16:50:44",
        "updated_at": "2021-01-08 16:50:44",
        "pages": [
            {
                "id": 26822,
                "account_id": 7089,
                "website_id": 6628,
                "feed_id": null,
                "include_posts": 0,
                "post_category": "",
                "title": "Contact Us",
                "image": null,
                "content": "   ", 
                "status": "live",
                "tags": "",
                "link": "",
                "start_time": "2021-01-07 16:50:44",
                "end_time": "1970-01-01 00:00:01",
                "thumb": "",
                "scripts": null,
                "type": "",
                "created_at": "2021-01-08 16:50:44",
                "updated_at": "2021-01-08 16:50:44",
                "pivot": {
                    "menu_id": 13258,
                    "page_id": 26822
                }
            }
        ]
    },
    "use_public": 1,
    "layout": "_jsondump",
    "theme": "_jsondump",
    "social": true,
    "team": {
        "id": 7089,
        "parent": null,
        "name": "Test Website",
        "description": null,
        "timezone": "America\/Los_Angeles",
        "type": "pubvertiser",
        "status": "pending",
        "settings": {
            "defaultListId": 7228,
            "interview": "complete",
            "emails": {
                "summary": "subscribed"
            }
        },
        "mtime": "2021-01-08 19:37:20",
        "ctime": "2021-01-08 16:50:44",
        "owner_id": 7,
        "created_at": "2021-01-08 16:50:44",
        "updated_at": "2021-01-08 19:37:20",
        "address": "123 Main St",
        "address_2": null,
        "city": "Vista",
        "state": "CA",
        "zip": "92084",
        "phone": null,
        "website": null,
        "facebook": "https:\/\/www.facebook.com\/facebook",
        "twitter": "https:\/\/www.twitter.com\/twitter",
        "linkedin": "https:\/\/www.linkedin.com\/in\/fb",
        "instagram": "https:\/\/www.instagram.com\/fb",
        "youtube": "https:\/\/www.youtube.com\/channel\/fb",
        "yelp": "https:\/\/www.yelp.com\/biz\/fb",
        "use_public": 1,
        "token": "DU5N5"
    },
    "map": "123+Main+St%2CVista%2CCA%2C92084%2C",
    "same_as": "\"https:\/\/www.facebook.com\/facebook\",\"https:\/\/www.twitter.com\/twitter\",\"https:\/\/www.instagram.com\/fb\",\"https:\/\/www.youtube.com\/channel\/fb\",\"https:\/\/www.linkedin.com\/in\/fb\"",
    "bread": true,
    "post": {
        "id": 36570,
        "permalink": "36570\/welcome\/index.html",
        "title": "Welcome!",
        "description": "Welcome to our website!\n\nPlease subscribe to our email list and check back frequently for updates!",
        "content": "<p>Welcome to our website!<\/p><p>Please subscribe to our email list and check back frequently for updates!<\/p>",
        "image": null,
        "date": "01\/07\/2021",
        "datePublished": "2021-01-07",
        "dateModified": "2021-01-08",
        "type": "post",
        "external": false,
        "loc": "http:\/\/dzr.io\/NY4l5acE\/36570\/welcome\/index.html"
    },
    "sign_up": "<form method=\"post\" action=\"https:\/\/trk.dzsend.com\/sub\/?data=eyJkYXRhIjp7ImFjY291bnRfaWQiOjcwODksImxpc3RfaWQiOjcyMjgsInJlZGlyIjoiaHR0cHM6XC9cL2R6ci5pb1wvTlk0bDVhY0VcL3RoYW5rcy5odG1sIiwicG9zdF9pZCI6MzY1NzB9LCJzaWciOiI0ZTRlZTNlNWRmYzMwNDJmNTQ1ZTU2Y2MwZGY3Y2M0MSJ9\" accept-charset=\"UTF-8\" id=\"dz_signup\">\n    <div class=\"field\">\n        <label class=\"label\">Email Address<\/label>\n        <div class=\"control\">\n            <input type=\"email\" name=\"email\" id=\"dz_email\" class=\"input\" placeholder=\"your email...\">\n        <\/div>\n    <\/div>\n\n    <input class=\"button is-primary\" type=\"button\" id=\"dz_submit_form\" value=\"Sign Up\" \/>\n    <input type=\"hidden\" name=\"token\" id=\"token\">\n    <input type=\"hidden\" name=\"dl\" id=\"dl\">\n    <input type=\"hidden\" name=\"account_id\" value=\"7089\">\n    <input type=\"hidden\" name=\"list_id\" value=\"7228\">\n<\/form>\n<script>function tokenizer() { document.getElementById(\"token\").value = document.getElementById(\"dz_email\").value + \"~\" + Math.floor((new Date).getTime() \/ 1e3), document.getElementById(\"dl\").value = window.location.href, document.getElementById(\"dz_signup\").submit() } document.getElementById(\"dz_submit_form\").addEventListener(\"click\", function (e) { tokenizer(), e.preventDefault() }), document.getElementById(\"dz_email\").onkeypress = function (e) { var t = e || window.event; if (13 === (t.which || t.keyCode)) return t.preventDefault(), tokenizer(), !1 };<\/script>",
    "contact_form": "        <form method=\"post\"\n        action=\"https:\/\/connect.dataczar.com\/api\/contact?data=eyJkYXRhIjp7ImFjY291bnRfaWQiOjcwODksIndlYnNpdGVfaWQiOjY2MjgsInJlZGlyIjoiaHR0cHM6XC9cL2R6ci5pb1wvTlk0bDVhY0VcL3RoYW5rcy5odG1sIiwicG9zdF9pZCI6MzY1NzB9LCJzaWciOiJkYTAyZDE5NjQ2NGUzMTUxZTdkN2M0ODczM2FlYzU1MCJ9\"\n        accept-charset=\"UTF-8\" id=\"dcz_contact\">\n        <div class=\"field\">\n            <label class=\"label\">Name<\/label>\n            <div class=\"control\">\n                <input type=\"text\" name=\"name\" id=\"dcz_name\" class=\"input\">\n            <\/div>\n        <\/div>\n        <div class=\"field\">\n            <label class=\"label\">Email Address<\/label>\n            <div class=\"control\">\n                <input type=\"email\" name=\"email\" id=\"dcz_email\" class=\"input\">\n                <p id=\"dcz_email_error\" class=\"help is-danger is-hidden\">Email is required<\/p>\n            <\/div>\n        <\/div>\n        <div class=\"field\">\n            <label class=\"label\">Phone<\/label>\n            <div class=\"control\">\n                <input type=\"text\" name=\"phone\" id=\"dcz_phone\" class=\"input\">\n            <\/div>\n        <\/div>\n        <div class=\"field\">\n            <label class=\"label\">Subject<\/label>\n            <div class=\"control\">\n                <input type=\"text\" name=\"subject\" id=\"dcz_subject\" class=\"input\">\n            <\/div>\n        <\/div>\n        <div class=\"field\">\n            <label class=\"label\">Message<\/label>\n            <div class=\"control\">\n                <textarea name=\"message\" id=\"dcz_message\" cols=\"30\" rows=\"10\" class=\"textarea\"><\/textarea>\n            <\/div>\n        <\/div>\n\n        <input class=\"button is-primary\" type=\"button\" id=\"dcz_submit_contact\" value=\"Submit\" \/>\n        <input type=\"hidden\" name=\"token\" id=\"dcz_token\">\n        <input type=\"hidden\" name=\"account_id\" value=\"7089\">\n        <input type=\"hidden\" name=\"website_id\" value=\"6628\">\n    <\/form>    \n    <script>function toggle_error(e, state) { var t = document.getElementById(e), n = document.getElementById(e + \"_error\"); state !== 'error' ? (t.classList.remove(\"is-danger\"), n.classList.add(\"is-hidden\")) : (t.classList.add(\"is-danger\"), n.classList.remove(\"is-hidden\")) } function contact_tokenizer() { var e = document.getElementById(\"dcz_email\"); \"\" === e.value ? toggle_error(\"dcz_email\", 'error') : (toggle_error(\"dcz_email\", ''), document.getElementById(\"dcz_token\").value = e.value + \"~\" + Math.floor((new Date).getTime() \/ 1e3), document.getElementById(\"dcz_contact\").submit()) } document.getElementById(\"dcz_submit_contact\").addEventListener(\"click\", function (e) { contact_tokenizer(), e.preventDefault() }), document.getElementById(\"dcz_email\").onkeypress = function (e) { var t = e || window.event; if (13 === (t.which || t.keyCode)) return t.preventDefault(), contact_tokenizer(), !1 };<\/script>",
    "permalink": "36570\/welcome\/index.html",
    "pixel_extra_data": "{\"post\":36570}",
    "base_url": "http:\/\/dzr.io\/NY4l5acE\/",
    "page_title": "",
    "tracking": {
        "sid": null,
        "pkgcd": null,
        "tests": null,
        "user_id": 1,
        "team_id": 7089
    },
    "bad_debt": false,
    "freeze": false,
    "low_sub": false,
    "canceled_with_domain": false,
    "defaultListId": 7228,
    "defaultWebsiteId": 6628,
    "settings": {
        "defaultListId": 7228,
        "interview": "complete",
        "emails": {
            "summary": "subscribed"
        }
    },
    "dark": false,
    "paying": false,
    "folder": "photos\/7089",
    "sig": "79f08b4832429d5bac00347e6d3e8367"
}